%YAML 1.1
%TAG !u! tag:unity3d.com,2011:
--- !u!114 &11400000
MonoBehaviour:
  m_ObjectHideFlags: 0
  m_CorrespondingSourceObject: {fileID: 0}
  m_PrefabInstance: {fileID: 0}
  m_PrefabAsset: {fileID: 0}
  m_GameObject: {fileID: 0}
  m_Enabled: 1
  m_EditorHideFlags: 0
  m_Script: {fileID: 11500000, guid: 07b3918f455afd648a02384283899c23, type: 3}
  m_Name: Tower_3L
  m_EditorClassIdentifier: 
  health: 90
  damage: 2
  cost: 120
  speed: 0
  timeShoot: 0.4
  sprite: {fileID: 21300000, guid: 3e98deaf6d248804da6553a0f3e0d1c4, type: 3}
  distanceOfView: 300
  BulletType: 0
