%YAML 1.1
%TAG !u! tag:unity3d.com,2011:
--- !u!687078895 &4343727234628468602
SpriteAtlas:
  m_ObjectHideFlags: 0
  m_CorrespondingSourceObject: {fileID: 0}
  m_PrefabInstance: {fileID: 0}
  m_PrefabAsset: {fileID: 0}
  m_Name: MapTiles1Atlas
  m_EditorData:
    serializedVersion: 2
    textureSettings:
      serializedVersion: 2
      anisoLevel: 1
      compressionQuality: 50
      maxTextureSize: 2048
      textureCompression: 0
      filterMode: 1
      generateMipMaps: 0
      readable: 0
      crunchedCompression: 0
      sRGB: 1
    platformSettings: []
    packingSettings:
      serializedVersion: 2
      padding: 4
      blockOffset: 1
      allowAlphaSplitting: 0
      enableRotation: 0
      enableTightPacking: 0
    secondaryTextureSettings: {}
    variantMultiplier: 1
    packables:
    - {fileID: 2800000, guid: 0d8a842a20423624e82783e7863bfe7d, type: 3}
    - {fileID: 2800000, guid: d49831e24cff65e4a95a351d7a49b0eb, type: 3}
    - {fileID: 2800000, guid: 303ef80ee839c08448ce13367e011076, type: 3}
    - {fileID: 2800000, guid: 3931529a4d460f14ba85a2a672091bcf, type: 3}
    - {fileID: 2800000, guid: a395a5666d032ed49ac09bba03edf857, type: 3}
    - {fileID: 2800000, guid: 978921cc94e3dee45acc9c4eb1c736dd, type: 3}
    - {fileID: 2800000, guid: eaf8fef6455559c4a87c6009757ba000, type: 3}
    - {fileID: 2800000, guid: efd6c7c8c1cee3c429cf515935dd0a68, type: 3}
    - {fileID: 2800000, guid: 22f2641431f728f4c9ed064af8d1d487, type: 3}
    - {fileID: 2800000, guid: 564f6b6ff0878e346a5325bfe42b807d, type: 3}
    - {fileID: 2800000, guid: f7dd4e8893b23084294c9e96feac3f67, type: 3}
    - {fileID: 2800000, guid: 3b3b6997d0da47a478ffe084f502a9e0, type: 3}
    - {fileID: 2800000, guid: 9c76b170da18d5e44b6ee7455f3211cb, type: 3}
    - {fileID: 2800000, guid: ec863b87c2ab6084f84bc09106ee283a, type: 3}
    - {fileID: 2800000, guid: 703823084ddac15409c5358c61da10d6, type: 3}
    - {fileID: 2800000, guid: 57449af590d5eb54eb6b35e0d838a10b, type: 3}
    - {fileID: 2800000, guid: b88d3281bd6c5dd43a6dc45e11846c9d, type: 3}
    - {fileID: 2800000, guid: 89e75d2d4d2db7d4ca044241aefdc41c, type: 3}
    - {fileID: 2800000, guid: 60fc45c40a23f764282f1c178b239f27, type: 3}
    - {fileID: 2800000, guid: 7fd29742b8aca3640acefb567378eb49, type: 3}
    - {fileID: 2800000, guid: 10d913a3d80aa6d42a5fa1031f486e8b, type: 3}
    - {fileID: 2800000, guid: 6303c48d3b684eb498fb018013196b82, type: 3}
    - {fileID: 2800000, guid: 123ab63d87fdb4f45817006b5623ba31, type: 3}
    - {fileID: 2800000, guid: 3be3eba50025b514692cb9ce851c1755, type: 3}
    - {fileID: 2800000, guid: ba3b17e94ce3972448bd8cbaf8cb8e98, type: 3}
    - {fileID: 2800000, guid: 7197c5b56dddbcf48a7f3a092fd07027, type: 3}
    - {fileID: 2800000, guid: a33ab91aa8081324da5ff52155b12a50, type: 3}
    - {fileID: 2800000, guid: c2438878ac21aab44885b859e43ef031, type: 3}
    - {fileID: 2800000, guid: f0973315dd1551446ac98331e48b8785, type: 3}
    - {fileID: 2800000, guid: 79e854276588a64429b20edfe0400882, type: 3}
    - {fileID: 2800000, guid: bce64ba1de26c914fa6cbbcd393b0de6, type: 3}
    - {fileID: 2800000, guid: 35079e229c681ba43a0af4de1893e159, type: 3}
    - {fileID: 2800000, guid: 0a7af2542840ced4d82cd13988020a7e, type: 3}
    - {fileID: 2800000, guid: 98c286726566acb489e73fe15eb8dcf7, type: 3}
    - {fileID: 2800000, guid: 27336e3e589b3864583b7d511ad60363, type: 3}
    - {fileID: 2800000, guid: 571807c1b9816294f9e7db72e7422d55, type: 3}
    - {fileID: 2800000, guid: 2138855c607fe394cb50a8c2b6ebb669, type: 3}
    - {fileID: 2800000, guid: 18a408300cd6e114f843a30a6a1557be, type: 3}
    - {fileID: 2800000, guid: b9406dd7f5188844d847f6a98e3a3533, type: 3}
    - {fileID: 2800000, guid: 46626b1629e198f44a3235aaca708084, type: 3}
    totalSpriteSurfaceArea: 655360
    bindAsDefault: 1
    isAtlasV2: 0
    cachedData: {fileID: 0}
  m_MasterAtlas: {fileID: 0}
  m_PackedSprites:
  - {fileID: 21300000, guid: 18a408300cd6e114f843a30a6a1557be, type: 3}
  - {fileID: 21300000, guid: 9c76b170da18d5e44b6ee7455f3211cb, type: 3}
  - {fileID: 21300000, guid: b88d3281bd6c5dd43a6dc45e11846c9d, type: 3}
  - {fileID: 21300000, guid: bce64ba1de26c914fa6cbbcd393b0de6, type: 3}
  - {fileID: 21300000, guid: 571807c1b9816294f9e7db72e7422d55, type: 3}
  - {fileID: 21300000, guid: 35079e229c681ba43a0af4de1893e159, type: 3}
  - {fileID: 21300000, guid: 7fd29742b8aca3640acefb567378eb49, type: 3}
  - {fileID: 21300000, guid: 98c286726566acb489e73fe15eb8dcf7, type: 3}
  - {fileID: 21300000, guid: d49831e24cff65e4a95a351d7a49b0eb, type: 3}
  - {fileID: 21300000, guid: 10d913a3d80aa6d42a5fa1031f486e8b, type: 3}
  - {fileID: 21300000, guid: 22f2641431f728f4c9ed064af8d1d487, type: 3}
  - {fileID: 21300000, guid: 0a7af2542840ced4d82cd13988020a7e, type: 3}
  - {fileID: 21300000, guid: 60fc45c40a23f764282f1c178b239f27, type: 3}
  - {fileID: 21300000, guid: f0973315dd1551446ac98331e48b8785, type: 3}
  - {fileID: 21300000, guid: 3be3eba50025b514692cb9ce851c1755, type: 3}
  - {fileID: 21300000, guid: 7197c5b56dddbcf48a7f3a092fd07027, type: 3}
  - {fileID: 21300000, guid: 57449af590d5eb54eb6b35e0d838a10b, type: 3}
  - {fileID: 21300000, guid: 46626b1629e198f44a3235aaca708084, type: 3}
  - {fileID: 21300000, guid: a395a5666d032ed49ac09bba03edf857, type: 3}
  - {fileID: 21300000, guid: eaf8fef6455559c4a87c6009757ba000, type: 3}
  - {fileID: 21300000, guid: 79e854276588a64429b20edfe0400882, type: 3}
  - {fileID: 21300000, guid: ec863b87c2ab6084f84bc09106ee283a, type: 3}
  - {fileID: 21300000, guid: 3b3b6997d0da47a478ffe084f502a9e0, type: 3}
  - {fileID: 21300000, guid: b9406dd7f5188844d847f6a98e3a3533, type: 3}
  - {fileID: 21300000, guid: 703823084ddac15409c5358c61da10d6, type: 3}
  - {fileID: 21300000, guid: c2438878ac21aab44885b859e43ef031, type: 3}
  - {fileID: 21300000, guid: f7dd4e8893b23084294c9e96feac3f67, type: 3}
  - {fileID: 21300000, guid: efd6c7c8c1cee3c429cf515935dd0a68, type: 3}
  - {fileID: 21300000, guid: ba3b17e94ce3972448bd8cbaf8cb8e98, type: 3}
  - {fileID: 21300000, guid: a33ab91aa8081324da5ff52155b12a50, type: 3}
  - {fileID: 21300000, guid: 0d8a842a20423624e82783e7863bfe7d, type: 3}
  - {fileID: 21300000, guid: 3931529a4d460f14ba85a2a672091bcf, type: 3}
  - {fileID: 21300000, guid: 2138855c607fe394cb50a8c2b6ebb669, type: 3}
  - {fileID: 21300000, guid: 978921cc94e3dee45acc9c4eb1c736dd, type: 3}
  - {fileID: 21300000, guid: 89e75d2d4d2db7d4ca044241aefdc41c, type: 3}
  - {fileID: 21300000, guid: 123ab63d87fdb4f45817006b5623ba31, type: 3}
  - {fileID: 21300000, guid: 6303c48d3b684eb498fb018013196b82, type: 3}
  - {fileID: 21300000, guid: 303ef80ee839c08448ce13367e011076, type: 3}
  - {fileID: 21300000, guid: 27336e3e589b3864583b7d511ad60363, type: 3}
  - {fileID: 21300000, guid: 564f6b6ff0878e346a5325bfe42b807d, type: 3}
  m_PackedSpriteNamesToIndex:
  - tileSand_roadSplitN
  - tileGrass_roadSplitS
  - tileGrass_roadTransitionN
  - tileSand_roadCornerUL
  - tileSand_roadNorth
  - tileSand_roadCornerUR
  - tileGrass_roadTransitionS_dirt
  - tileSand_roadCrossingRound
  - tileGrass2
  - tileGrass_roadTransitionW
  - tileGrass_roadEast
  - tileSand_roadCrossing
  - tileGrass_roadTransitionS
  - tileSand_roadCornerLL
  - tileGrass_transitionN
  - tileGrass_transitionW
  - tileGrass_roadTransitionE_dirt
  - tileSand_roadSplitW
  - tileGrass_roadCornerUL
  - tileGrass_roadCrossing
  - tileSand_roadCornerLR
  - tileGrass_roadSplitW
  - tileGrass_roadSplitN
  - tileSand_roadSplitS
  - tileGrass_roadTransitionE
  - tileSand2
  - tileGrass_roadSplitE
  - tileGrass_roadCrossingRound
  - tileGrass_transitionS
  - tileSand1
  - tileGrass1
  - tileGrass_roadCornerLR
  - tileSand_roadSplitE
  - tileGrass_roadCornerUR
  - tileGrass_roadTransitionN_dirt
  - tileGrass_transitionE
  - tileGrass_roadTransitionW_dirt
  - tileGrass_roadCornerLL
  - tileSand_roadEast
  - tileGrass_roadNorth
  m_RenderDataMap: {}
  m_Tag: MapTiles1Atlas
  m_IsVariant: 0
