%YAML 1.1
%TAG !u! tag:unity3d.com,2011:
--- !u!1 &8433171267244504295
GameObject:
  m_ObjectHideFlags: 0
  m_CorrespondingSourceObject: {fileID: 0}
  m_PrefabInstance: {fileID: 0}
  m_PrefabAsset: {fileID: 0}
  serializedVersion: 6
  m_Component:
  - component: {fileID: 8433171267244504315}
  - component: {fileID: 8433171267244504314}
  - component: {fileID: 8433171267244504313}
  - component: {fileID: 8433171267244504312}
  - component: {fileID: 8433171267244504316}
  m_Layer: 5
  m_Name: Pool
  m_TagString: Untagged
  m_Icon: {fileID: 0}
  m_NavMeshLayer: 0
  m_StaticEditorFlags: 0
  m_IsActive: 1
--- !u!224 &8433171267244504315
RectTransform:
  m_ObjectHideFlags: 0
  m_CorrespondingSourceObject: {fileID: 0}
  m_PrefabInstance: {fileID: 0}
  m_PrefabAsset: {fileID: 0}
  m_GameObject: {fileID: 8433171267244504295}
  m_LocalRotation: {x: 0, y: 0, z: 0, w: 1}
  m_LocalPosition: {x: 0, y: 0, z: 0}
  m_LocalScale: {x: 0, y: 0, z: 0}
  m_Children:
  - {fileID: 4393642019517427821}
  m_Father: {fileID: 0}
  m_RootOrder: 0
  m_LocalEulerAnglesHint: {x: 0, y: 0, z: 0}
  m_AnchorMin: {x: 0, y: 0}
  m_AnchorMax: {x: 0, y: 0}
  m_AnchoredPosition: {x: 0, y: 0}
  m_SizeDelta: {x: 0, y: 0}
  m_Pivot: {x: 0, y: 0}
--- !u!223 &8433171267244504314
Canvas:
  m_ObjectHideFlags: 0
  m_CorrespondingSourceObject: {fileID: 0}
  m_PrefabInstance: {fileID: 0}
  m_PrefabAsset: {fileID: 0}
  m_GameObject: {fileID: 8433171267244504295}
  m_Enabled: 1
  serializedVersion: 3
  m_RenderMode: 1
  m_Camera: {fileID: 0}
  m_PlaneDistance: 100
  m_PixelPerfect: 0
  m_ReceivesEvents: 1
  m_OverrideSorting: 0
  m_OverridePixelPerfect: 0
  m_SortingBucketNormalizedSize: 0
  m_AdditionalShaderChannelsFlag: 0
  m_SortingLayerID: 0
  m_SortingOrder: 0
  m_TargetDisplay: 0
--- !u!114 &8433171267244504313
MonoBehaviour:
  m_ObjectHideFlags: 0
  m_CorrespondingSourceObject: {fileID: 0}
  m_PrefabInstance: {fileID: 0}
  m_PrefabAsset: {fileID: 0}
  m_GameObject: {fileID: 8433171267244504295}
  m_Enabled: 1
  m_EditorHideFlags: 0
  m_Script: {fileID: 11500000, guid: 0cd44c1031e13a943bb63640046fad76, type: 3}
  m_Name: 
  m_EditorClassIdentifier: 
  m_UiScaleMode: 0
  m_ReferencePixelsPerUnit: 100
  m_ScaleFactor: 1
  m_ReferenceResolution: {x: 800, y: 600}
  m_ScreenMatchMode: 0
  m_MatchWidthOrHeight: 0
  m_PhysicalUnit: 3
  m_FallbackScreenDPI: 96
  m_DefaultSpriteDPI: 96
  m_DynamicPixelsPerUnit: 1
  m_PresetInfoIsWorld: 0
--- !u!114 &8433171267244504312
MonoBehaviour:
  m_ObjectHideFlags: 0
  m_CorrespondingSourceObject: {fileID: 0}
  m_PrefabInstance: {fileID: 0}
  m_PrefabAsset: {fileID: 0}
  m_GameObject: {fileID: 8433171267244504295}
  m_Enabled: 1
  m_EditorHideFlags: 0
  m_Script: {fileID: 11500000, guid: dc42784cf147c0c48a680349fa168899, type: 3}
  m_Name: 
  m_EditorClassIdentifier: 
  m_IgnoreReversedGraphics: 1
  m_BlockingObjects: 0
  m_BlockingMask:
    serializedVersion: 2
    m_Bits: 4294967295
--- !u!114 &8433171267244504316
MonoBehaviour:
  m_ObjectHideFlags: 0
  m_CorrespondingSourceObject: {fileID: 0}
  m_PrefabInstance: {fileID: 0}
  m_PrefabAsset: {fileID: 0}
  m_GameObject: {fileID: 8433171267244504295}
  m_Enabled: 1
  m_EditorHideFlags: 0
  m_Script: {fileID: 11500000, guid: 8e94e87a671552043947f7a9fe78c1d3, type: 3}
  m_Name: 
  m_EditorClassIdentifier: 
  unitsData:
  - {fileID: 11400000, guid: 8013bfcff3d9a8b43aabe28b015c0fa6, type: 2}
  - {fileID: 11400000, guid: 64c181f8b44d9b246bafdeb259e32709, type: 2}
  - {fileID: 11400000, guid: 70862115403629b43b596cf89a086003, type: 2}
  - {fileID: 11400000, guid: c37823bebe38ada4e84bf964fdccb7bf, type: 2}
  poolCount: 20
  unitPrefab: {fileID: 3087075731836730038, guid: f91c09ca49dc112438fb12a230eb0db3, type: 3}
  _components:
  - {fileID: 0}
  - {fileID: 0}
  - {fileID: 0}
  - {fileID: 0}
--- !u!1001 &8433171267607542069
PrefabInstance:
  m_ObjectHideFlags: 0
  serializedVersion: 2
  m_Modification:
    m_TransformParent: {fileID: 8433171267244504315}
    m_Modifications:
    - target: {fileID: 5328319888108276056, guid: bb5008b7d687a064285026ab3c1d5f0d, type: 3}
      propertyPath: m_Pivot.x
      value: 0.5
      objectReference: {fileID: 0}
    - target: {fileID: 5328319888108276056, guid: bb5008b7d687a064285026ab3c1d5f0d, type: 3}
      propertyPath: m_Pivot.y
      value: 0.5
      objectReference: {fileID: 0}
    - target: {fileID: 5328319888108276056, guid: bb5008b7d687a064285026ab3c1d5f0d, type: 3}
      propertyPath: m_RootOrder
      value: 0
      objectReference: {fileID: 0}
    - target: {fileID: 5328319888108276056, guid: bb5008b7d687a064285026ab3c1d5f0d, type: 3}
      propertyPath: m_AnchorMax.x
      value: 1
      objectReference: {fileID: 0}
    - target: {fileID: 5328319888108276056, guid: bb5008b7d687a064285026ab3c1d5f0d, type: 3}
      propertyPath: m_AnchorMax.y
      value: 1
      objectReference: {fileID: 0}
    - target: {fileID: 5328319888108276056, guid: bb5008b7d687a064285026ab3c1d5f0d, type: 3}
      propertyPath: m_AnchorMin.x
      value: 0
      objectReference: {fileID: 0}
    - target: {fileID: 5328319888108276056, guid: bb5008b7d687a064285026ab3c1d5f0d, type: 3}
      propertyPath: m_AnchorMin.y
      value: 0
      objectReference: {fileID: 0}
    - target: {fileID: 5328319888108276056, guid: bb5008b7d687a064285026ab3c1d5f0d, type: 3}
      propertyPath: m_SizeDelta.x
      value: 0
      objectReference: {fileID: 0}
    - target: {fileID: 5328319888108276056, guid: bb5008b7d687a064285026ab3c1d5f0d, type: 3}
      propertyPath: m_SizeDelta.y
      value: 0
      objectReference: {fileID: 0}
    - target: {fileID: 5328319888108276056, guid: bb5008b7d687a064285026ab3c1d5f0d, type: 3}
      propertyPath: m_LocalScale.x
      value: 1
      objectReference: {fileID: 0}
    - target: {fileID: 5328319888108276056, guid: bb5008b7d687a064285026ab3c1d5f0d, type: 3}
      propertyPath: m_LocalScale.y
      value: 1
      objectReference: {fileID: 0}
    - target: {fileID: 5328319888108276056, guid: bb5008b7d687a064285026ab3c1d5f0d, type: 3}
      propertyPath: m_LocalScale.z
      value: 1
      objectReference: {fileID: 0}
    - target: {fileID: 5328319888108276056, guid: bb5008b7d687a064285026ab3c1d5f0d, type: 3}
      propertyPath: m_LocalPosition.x
      value: 0
      objectReference: {fileID: 0}
    - target: {fileID: 5328319888108276056, guid: bb5008b7d687a064285026ab3c1d5f0d, type: 3}
      propertyPath: m_LocalPosition.y
      value: 0
      objectReference: {fileID: 0}
    - target: {fileID: 5328319888108276056, guid: bb5008b7d687a064285026ab3c1d5f0d, type: 3}
      propertyPath: m_LocalPosition.z
      value: 0
      objectReference: {fileID: 0}
    - target: {fileID: 5328319888108276056, guid: bb5008b7d687a064285026ab3c1d5f0d, type: 3}
      propertyPath: m_LocalRotation.w
      value: 1
      objectReference: {fileID: 0}
    - target: {fileID: 5328319888108276056, guid: bb5008b7d687a064285026ab3c1d5f0d, type: 3}
      propertyPath: m_LocalRotation.x
      value: -0
      objectReference: {fileID: 0}
    - target: {fileID: 5328319888108276056, guid: bb5008b7d687a064285026ab3c1d5f0d, type: 3}
      propertyPath: m_LocalRotation.y
      value: -0
      objectReference: {fileID: 0}
    - target: {fileID: 5328319888108276056, guid: bb5008b7d687a064285026ab3c1d5f0d, type: 3}
      propertyPath: m_LocalRotation.z
      value: -0
      objectReference: {fileID: 0}
    - target: {fileID: 5328319888108276056, guid: bb5008b7d687a064285026ab3c1d5f0d, type: 3}
      propertyPath: m_AnchoredPosition.x
      value: 0
      objectReference: {fileID: 0}
    - target: {fileID: 5328319888108276056, guid: bb5008b7d687a064285026ab3c1d5f0d, type: 3}
      propertyPath: m_AnchoredPosition.y
      value: 0
      objectReference: {fileID: 0}
    - target: {fileID: 5328319888108276056, guid: bb5008b7d687a064285026ab3c1d5f0d, type: 3}
      propertyPath: m_LocalEulerAnglesHint.x
      value: 0
      objectReference: {fileID: 0}
    - target: {fileID: 5328319888108276056, guid: bb5008b7d687a064285026ab3c1d5f0d, type: 3}
      propertyPath: m_LocalEulerAnglesHint.y
      value: 0
      objectReference: {fileID: 0}
    - target: {fileID: 5328319888108276056, guid: bb5008b7d687a064285026ab3c1d5f0d, type: 3}
      propertyPath: m_LocalEulerAnglesHint.z
      value: 0
      objectReference: {fileID: 0}
    - target: {fileID: 5328319888108276059, guid: bb5008b7d687a064285026ab3c1d5f0d, type: 3}
      propertyPath: m_Name
      value: BulletsParent
      objectReference: {fileID: 0}
    - target: {fileID: 5328319888108276059, guid: bb5008b7d687a064285026ab3c1d5f0d, type: 3}
      propertyPath: m_IsActive
      value: 1
      objectReference: {fileID: 0}
    m_RemovedComponents: []
  m_SourcePrefab: {fileID: 100100000, guid: bb5008b7d687a064285026ab3c1d5f0d, type: 3}
--- !u!224 &4393642019517427821 stripped
RectTransform:
  m_CorrespondingSourceObject: {fileID: 5328319888108276056, guid: bb5008b7d687a064285026ab3c1d5f0d, type: 3}
  m_PrefabInstance: {fileID: 8433171267607542069}
  m_PrefabAsset: {fileID: 0}
