%YAML 1.1
%TAG !u! tag:unity3d.com,2011:
--- !u!114 &11400000
MonoBehaviour:
  m_ObjectHideFlags: 0
  m_CorrespondingSourceObject: {fileID: 0}
  m_PrefabInstance: {fileID: 0}
  m_PrefabAsset: {fileID: 0}
  m_GameObject: {fileID: 0}
  m_Enabled: 1
  m_EditorHideFlags: 0
  m_Script: {fileID: 11500000, guid: b4474594fc734f44a9a643c574aa7c95, type: 3}
  m_Name: AddHealth
  m_EditorClassIdentifier: 
  sprite: {fileID: 21300000, guid: db66645b23d69ec4a8f49352daeb2273, type: 3}
  type: 1
